<?xml version="1.0" encoding="utf-8"?>
<!-- Generator: Adobe Illustrator 15.0.0, SVG Export Plug-In . SVG Version: 6.00 Build 0)  -->
<!DOCTYPE svg PUBLIC "-//W3C//DTD SVG 1.1//EN" "http://www.w3.org/Graphics/SVG/1.1/DTD/svg11.dtd">
<svg version="1.1" id="Capa_1" xmlns="http://www.w3.org/2000/svg" xmlns:xlink="http://www.w3.org/1999/xlink" x="0px" y="0px"
	 width="64px" height="64px" viewBox="0 0 64 64" enable-background="new 0 0 64 64" xml:space="preserve">
<g>
	<rect x="3.5" y="23.5" width="34" height="34"/>
	<path fill="#FFFFFF" d="M36,25v31H5V25H36 M39,22h-3H5H2v3v31v3h3h31h3v-3V25V22L39,22z"/>
</g>
<g>
	<path fill="#FFFFFF" d="M24.049,40.518l7.01-7.009c0.588-0.588,0.588-1.545,0-2.141l-1.429-1.427c-0.588-0.588-1.545-0.588-2.142,0
		L20.48,36.95l-6.97-6.966c-0.588-0.588-1.546-0.588-2.142,0L9.94,31.411c-0.588,0.588-0.588,1.545,0,2.141l6.969,6.966
		l-6.962,6.957c-0.588,0.588-0.588,1.545,0,2.141l1.427,1.427c0.588,0.588,1.546,0.588,2.142,0l6.962-6.956l6.977,6.975
		c0.588,0.586,1.546,0.586,2.141,0l1.428-1.428c0.588-0.588,0.588-1.545,0-2.14L24.049,40.518z"/>
</g>
</svg>
